131
137
151
157
173
179
191
193
199
223
227
229
241
283
313
331
379
397
409
421
443
463
487
557
577
601
607
641
647
661
719
733
757
809
823
827
829
883
911
919
953
971
1033
1039
1051
1109
1123
1129
1163
1187
1213
1231
1259
1291
1301
1321
1327
1361
1367
1451
1453
1459
1493
1543
1549
1567
1583
1657
1693
1697
1709
1721
1741
1747
1831
1877
2063
2081
2087
2111
2113
2131
2137
2153
2207
2243
2267
2269
2311
2339
2351
2371
2377
2441
2447
2531
2579
2591
2609
2621
2647
2663
2711
2731
2753
2777
2801
2843
2861
2917
2957
3011
3079
3109
3121
3163
3169
3181
3187
3217
3251
3253
3257
3271
3299
3301
3343
3361
3413
3433
3457
3491
3529
3583
3613
3617
3637
3659
3673
3761
3851
3853
3907
4001
4111
4139
4153
4159
4201
4243
4261
4283
4339
4373
4421
4483
4513
4519
4621
4643
4649
4663
4751
4793
4801
4999
5011
5059
5167
5189
5237
5323
5347
5381
5419
5477
5923
6151
6203
6247
6287
6311
6317
6337
6373
6427
6553
6661
6689
6733
6791
6803
6911
7039
7057
7103
7211
7213
7219
7253
7307
7309
7321
7561
7691
7699
7817
8111
8171
8191
8209
8221
8243
8263
8311
8317
8423
8429
8461
8599
8609
8627
8641
8681
8689
8753
8807
8821
8849
8861
8933
9011
9013
9059
9109
9161
9257
9323
9419
9433
9613
9697
9743
9767
9811
9833
9857
9923
9929
